Doreen Kalembe Data Analysis Portfolio
…
lets exclude everyone with everyone with time =0. and then create a another variable Y which is the sum of DV

class(Mavo_data2)

[1] "spec_tbl_df" "tbl_df"      "tbl"         "data.frame" 

summary_data <- Mavo_data2 %>%
  filter(TIME != 0) %>%  # Remove rows where TIME = 0
   dplyr::group_by(ID) %>%
  dplyr::summarize(Y = sum(DV, na.rm = TRUE), .groups = "drop")  # Sum DV for each individual

print(summary_data)  

# A tibble: 120 × 2
      ID     Y
   <dbl> <dbl>
 1   793 2691.
 2   794 2639.
 3   795 2150.
 4   796 1789.
 5   797 3126.
 6   798 2337.
 7   799 3007.
 8   800 2796.
 9   801 3866.
10   802 1762.
# ℹ 110 more rows
…
